open;high;low;close;volume
32.14;32.37;31.44;31.91;11986456
31.96;32.21;31.67;31.89;12288199
31.96;32.22;31.55;31.75;14191389
31.68;31.94;31.58;31.69;10845008
31.7;32.205;31.61;32.04;12696066
31.98;32.27;31.59;31.59;16493884
31.32;32.32;31.14;32.24;13888148
31.69;32.0;31.27;31.46;13954085
31.49;31.805;31.31;31.56;11687598
31.55;32.14;31.5;31.95;10056469
31.67;31.8;31.38;31.59;14756151
31.72;32.1;31.52;31.6;7806455
31.84;32.0;31.65;31.7;8848978
31.84;32.06;31.5;31.92;10073632
32.13;32.44;31.98;32.24;8185280
32.12;32.25;31.67;31.91;9400557
31.53;31.57;30.955;31.03;10217675
30.82;31.49;30.62;31.35;9753462
31.44;31.8;31.32;31.77;7425143
31.77;32.11;30.74;31.04;12529741
31.27;32.32;31.0;32.06;16269726
32.02;32.15;31.465;31.95;10324254
32.07;32.4;31.81;32.04;9525387
32.17;32.725;32.1;32.56;11157666
32.48;32.65;32.2;32.39;11347166
32.34;32.52;31.95;32.31;11406104
32.62;32.71;32.41;32.56;6609180
32.49;32.755;31.95;32.18;6827702
32.18;32.38;31.8794;31.91;6743261
31.49;33.0;30.96;31.73;13893520
32.24;32.79;31.89;32.07;13734116
32.05;32.17;31.61;31.79;10114266
32.25;32.51;32.04;32.32;13091636
32.84;33.0;32.18;32.93;18522741
32.84;33.19;32.575;32.9;10650671
32.6;33.52;32.54;33.44;13910338
33.57;33.68;33.34;33.38;9221301
33.39;33.59;33.2;33.35;7912666
33.15;33.65;33.06;33.59;9112972
33.82;34.005;33.58;33.82;12608435
33.69;34.03;33.17;33.52;10183535
33.71;33.88;33.49;33.57;8687190
33.68;33.83;32.91;33.36;8988743
33.12;33.17;32.73;32.92;8900448
33.07;33.23;32.77;32.81;8172454
32.82;33.21;32.56;32.78;7897846
33.57;34.0;33.57;34.0;11328047
33.81;34.28;33.54;34.1;7370494
34.7;36.91;34.47;36.52;28311033
36.72;38.94;36.72;38.02;38587204
37.37;38.75;37.34;38.49;22845455
38.88;39.88;38.78;39.35;25618994
38.81;40.035;38.405;40.0;18608046
39.01;39.48;38.955;39.19;18234923
39.02;39.97;38.72;39.97;12676901
40.0;40.665;39.89;40.43;16413329
40.44;40.8;40.11;40.56;10122257
40.56;40.77;39.97;40.54;12341112
40.5;41.179;40.22;41.04;9853631
41.1;41.2;40.79;41.1;4027471
40.63;40.995;40.345;40.44;10123600
40.44;40.92;40.29;40.6;8602864
41.02;41.64;41.01;41.36;14726566
41.76;42.54;41.58;42.16;14053940
42.091;42.091;41.14;41.83;11288363
42.3;42.845;41.811;42.09;12264184
42.49;42.74;41.97;42.51;11769504
42.5;42.79;42.285;42.64;16213352
42.9;43.72;42.6962;43.58;14972868
43.49;44.04;43.23;43.73;12115063
43.5;43.91;42.66;42.98;12052024
43.12;43.3;42.16;42.56;16674850
42.27;43.65;42.12;42.86;15136470
43.37;43.51;42.89;43.01;15725728
43.12;43.55;42.61;42.71;19076896
42.66;42.86;42.14;42.83;12663474
43.13;43.58;43.13;43.5;8647434
43.64;43.66;43.28;43.37;6859264
43.3;43.39;42.76;42.79;8200299
42.86;43.07;42.75;43.06;6732960
43.27;43.27;42.95;43.12;5926956
43.25;43.29;42.57;42.62;4854540
42.65;42.77;41.7343;42.15;7180187
42.17;42.55;41.88;42.25;6943549
43.09;43.63;42.45;43.05;8316914
43.3;43.82;43.04;43.62;7747375
43.53;43.63;42.19;43.22;9883202
43.56;44.13;43.18;43.85;9152750
43.49;43.54;42.68;42.71;11104032
42.98;43.5199;42.75;43.06;9074252
43.13;43.67;42.78;43.67;8777107
43.6;43.71;42.84;43.63;8595607
44.02;44.6;43.495;43.81;12904520
43.78;43.84;41.77;42.15;21840380
42.29;43.15;41.98;42.86;15906928
42.57;43.0;41.95;42.45;15040127
42.48;42.865;42.35;42.59;10779621
42.2;42.58;41.775;41.96;12344651
42.08;43.13;42.03;42.73;12164231
43.2;43.9;42.96;43.86;13961040
43.94;44.42;43.75;44.02;10628851
43.75;43.95;43.56;43.65;7635587
43.24;43.29;42.47;43.12;7216178
43.08;43.37;42.32;42.49;10811008
43.3;43.395;42.5535;42.7;9731327
42.19;42.5062;41.83;42.13;11480959
43.1;44.6;42.92;44.43;16692151
44.26;45.03;44.14;44.63;12577130
44.88;45.03;44.62;44.87;10055682
44.58;44.59;43.62;43.91;10586468
44.35;45.03;43.89;44.85;13166699
45.13;45.15;44.34;44.7;8909448
45.0;45.6;44.94;45.26;13256300
45.19;46.26;45.1;46.04;12958706
46.38;46.75;46.0;46.49;10115099
46.42;46.5;45.8;46.11;10752458
45.55;46.17;45.4;46.15;8310108
46.27;46.7;46.27;46.56;7628447
46.21;46.82;46.14;46.52;7612788
46.58;46.59;46.195;46.58;11877616
45.89;45.95;45.24;45.53;11837243
45.52;46.025;45.46;45.84;7887039
45.6;45.83;45.13;45.67;13789408
46.95;47.17;46.61;46.81;14373722
47.08;47.09;46.04;46.28;8477019
46.27;47.06;46.22;46.83;11405159
46.53;46.64;45.98;46.57;9332616
46.65;46.79;46.21;46.33;9411016
46.97;47.33;46.34;46.39;11464727
46.6;47.12;46.54;46.68;11135441
47.04;47.09;46.21;46.49;8579366
46.68;46.745;46.23;46.26;7160442
46.26;46.26;45.73;46.19;6916173
46.26;46.63;45.675;45.85;10796050
46.17;46.59;46.02;46.33;9284106
46.26;46.36;44.93;45.02;13474517
44.74;44.96;44.33;44.59;9734236
44.77;44.93;42.42;42.66;20018395
42.16;42.75;41.64;42.21;19046586
41.98;42.98;41.78;42.59;14888825
42.78;43.0;42.15;42.46;10815346
40.66;41.715;40.06;41.58;21631062
41.58;42.765;41.57;42.49;12944939
43.09;43.25;42.54;42.8;14543860
42.85;43.71;42.8;43.43;11264835
43.25;43.25;42.665;42.84;11203334
42.81;42.99;42.08;42.71;12531806
42.54;42.84;42.3501;42.51;7837106
43.01;43.1;41.61;41.74;12455149
41.63;42.3654;41.43;42.09;9520900
41.62;42.25;41.42;41.95;9319573
41.9;42.15;41.39;41.91;8677226
41.56;41.775;40.99;41.58;10318445
41.5;41.52;41.005;41.07;10440641
40.83;41.68;40.5;40.69;10516537
40.78;41.545;40.58;41.49;7959724
40.99;41.55;40.75;41.21;13872360
42.31;42.94;41.96;42.04;19850262
42.61;42.76;42.1;42.5;13816214
42.21;42.61;41.705;41.8;12951314
43.39;43.73;43.19;43.56;16188120
43.98;44.45;43.92;44.27;13857588
44.17;44.86;44.14;44.37;12938395
44.16;44.21;43.39;43.54;9041320
43.6;43.81;43.34;43.37;9049132
43.76;44.06;43.49;43.74;7552203
43.67;43.78;43.0;43.35;8126417
43.15;43.77;43.116;43.48;5578267
43.85;43.97;43.22;43.28;7367767
43.36;43.56;42.87;43.08;6893434
43.15;43.31;42.93;43.02;7172056
43.05;43.34;42.67;42.83;6068704
42.8;43.195;42.67;43.1;7368296
42.98;43.2;42.44;42.87;6339987
42.61;42.76;42.36;42.73;5836319
42.82;43.62;42.8042;43.43;9941130
43.54;43.64;43.29;43.38;6888917
42.4;42.5;40.43;40.97;22899920
41.0;41.875;40.92;41.31;14498372
41.59;42.22;41.36;41.8;10486745
42.05;42.17;41.495;41.66;6752554
41.51;42.645;41.33;42.42;10761346
42.36;42.74;42.3;42.63;6583898
42.83;42.97;42.49;42.63;5062794
42.45;42.97;42.44;42.84;5346476
42.58;42.72;42.05;42.28;6377888
42.19;42.19;41.07;41.74;13637891
41.98;42.73;41.75;42.61;9654328
42.15;42.935;41.9;42.52;10016390
42.55;43.4;42.45;42.89;6892826
42.45;43.07;42.21;42.94;7863199
43.14;43.45;42.92;43.28;6378539
43.26;44.72;43.15;44.1;11032458
44.36;45.35;44.36;44.91;13489901
45.04;45.5;44.38;44.85;10384231
45.07;45.98;45.05;45.15;9857826
44.57;45.12;44.22;44.91;11796250
44.48;45.08;44.42;44.69;6905109
44.769;44.84;44.24;44.48;9483171
44.88;45.91;44.83;45.72;9153921
45.48;45.72;45.28;45.5;6680509
45.45;45.525;44.81;44.91;7257621
44.7;44.87;44.38;44.61;7750503
44.7;44.73;43.51;43.69;15915082
43.96;44.33;43.48;44.0;5780382
44.34;44.76;44.16;44.22;8318762
44.46;44.795;44.2;44.32;15848563
45.44;45.61;44.27;44.75;15728164
45.33;45.43;44.44;44.56;8379357
45.0;46.02;44.98;45.61;7486908
45.89;46.25;45.54;46.16;9843234
46.1;46.64;45.7729;46.13;10417339
46.32;46.4;45.96;46.05;6441951
45.95;46.235;45.8;45.99;5321495
45.83;45.93;45.38;45.48;8454689
45.33;45.33;44.73;44.96;10234418
45.17;45.725;44.991;45.52;6204171
44.88;45.395;44.32;45.2;8220642
45.15;45.53;44.93;45.33;5141581
44.93;45.25;44.69;45.14;9594086
46.95;47.0;45.98;46.62;17586286
46.35;47.1899;46.35;46.51;10652359
46.12;46.79;46.1;46.59;9021263
46.5;46.97;46.46;46.71;7443591
47.23;48.04;47.23;47.61;11885032
47.72;47.85;47.12;47.21;9034543
47.14;47.595;46.6311;47.09;9439318
46.98;47.2;46.455;46.66;7959560
46.94;47.15;46.6;46.9;6764635
47.25;47.53;47.055;47.21;6329976
47.14;47.46;46.825;47.33;6020026
47.24;47.55;47.11;47.26;6479288
47.79;48.45;47.52;48.08;8906804
48.2;48.395;47.95;48.31;7761584
48.24;48.8983;47.81;47.93;7771790
47.22;47.69;46.94;47.65;8282866
47.29;47.47;46.23;46.3;10099843
46.38;46.53;45.47;45.65;13505797
46.21;46.935;46.18;46.51;7136346
47.01;47.3;46.43;46.43;7663010
46.61;46.82;45.915;46.01;8350802
45.83;45.98;45.03;45.09;9426821
44.94;45.82;44.865;45.39;7284026
45.4;45.4;44.53;44.68;8501908
45.0;45.705;44.93;45.57;7130726
45.2;45.95;45.11;45.8;5464753
45.97;46.18;45.73;46.0;6640733
46.17;46.42;45.73;45.94;5659431
46.16;46.16;45.12;45.48;6526699
44.72;45.57;44.3421;45.35;8776148
45.44;45.955;45.43;45.66;5672867
46.0;46.04;45.39;45.5;7890839
45.59;46.52;45.3;46.19;7024739
45.66;45.72;44.72;44.91;9777593
45.04;45.34;44.745;45.07;6313230
45.13;45.13;43.84;44.07;11538295
44.19;44.81;43.95;44.01;8739832
44.71;45.33;44.42;45.16;8017000
45.36;46.075;45.34;45.75;8010993
45.73;46.26;45.56;46.22;6637917
46.4;46.76;46.31;46.42;7414125
46.26;46.66;46.14;46.6;9113079
46.82;47.67;46.75;47.32;7938043
47.32;47.97;47.155;47.67;7999620
47.71;48.27;47.32;47.89;8673623
47.8;48.49;47.46;48.26;9503556
48.03;48.28;47.73;48.22;6050036
48.1;48.31;47.53;47.74;7205180
47.7;47.74;47.115;47.46;7146052
48.27;48.375;47.78;48.07;10314611
48.37;48.37;47.885;48.15;5960675
48.1;48.3;47.91;48.17;5200481
48.11;48.96;48.11;48.92;6096923
48.94;49.35;48.76;49.28;6432421
49.23;49.33;48.76;49.01;5372935
49.11;49.96;48.7801;49.63;11491132
49.96;50.14;49.38;49.76;5159442
49.92;50.0;49.31;49.38;6333758
49.38;49.54;49.13;49.49;5903475
49.43;49.43;49.13;49.18;5364636
49.3;49.42;48.38;48.59;6915080
48.15;48.535;47.7;48.3;7224467
48.24;48.99;48.24;48.94;8178930
49.69;50.33;48.9742;49.12;15535036
49.42;50.45;49.37;50.15;12094942
49.79;49.945;49.185;49.79;10053117
50.45;50.91;50.22;50.68;8454470
50.88;51.1;50.39;50.61;6265815
50.81;51.39;50.79;51.07;7849701
51.51;51.52;49.92;50.53;9645824
50.75;51.2;50.58;50.77;9715670
50.65;51.35;50.51;51.16;9261076
50.57;50.78;49.97;50.46;9020853
50.47;50.72;49.95;50.0;9282996
50.22;50.545;49.5;49.63;7842936
49.53;50.44;49.51;50.42;7902296
50.15;50.42;49.66;50.02;5916824
49.88;50.295;49.75;50.14;4844249
50.26;50.59;49.26;49.39;8823821
49.21;49.38;48.73;49.04;8435662
48.78;49.28;48.26;48.82;6189498
49.01;49.195;48.72;48.76;5436518
48.25;48.76;48.24;48.63;5730407
48.37;48.55;47.96;48.38;5968532
47.84;48.525;47.42;48.1;9749632
48.39;48.84;48.37;48.6;7788965
48.29;48.895;48.16;48.7;4992616
48.91;49.28;48.66;49.11;4574628
49.61;49.76;49.29;49.38;6036970
49.34;49.62;49.07;49.09;3785942
49.3;49.39;49.04;49.06;2692946
48.98;49.32;48.71;49.0;5025564
49.15;50.53;48.93;50.4;9001202
50.91;51.815;50.8049;51.32;9441147
51.82;52.58;51.34;51.61;12158198
51.88;52.24;50.72;51.95;10014020
53.11;53.37;52.67;52.68;10640132
52.87;52.94;51.795;52.01;7959697
51.66;52.36;51.44;51.69;7701648
51.34;52.73;51.26;52.35;8765625
52.99;52.99;52.15;52.89;6488884
52.77;52.89;52.53;52.77;6316908
52.83;54.1;52.73;53.85;8151959
53.96;54.25;53.12;53.18;10568359
53.4;53.8;52.63;52.64;8190057
53.05;53.43;52.7;53.1;12708046
53.87;53.89;52.98;53.24;8442956
53.54;53.59;52.9;52.93;7630623
53.38;53.49;52.48;52.51;6435059
52.81;53.3;52.56;52.88;11350613
53.03;53.105;52.25;52.72;6153843
52.54;52.76;52.09;52.47;3313782
52.33;52.5895;52.11;52.57;5786825
52.76;52.77;52.43;52.65;3736679
52.76;52.82;52.37;52.47;5804576
52.76;52.79;52.17;52.19;6644643
52.3;52.55;51.92;52.33;6955511
52.8;53.53;52.51;53.13;8678825
53.2;53.24;52.74;53.11;6475968
52.93;53.17;52.69;52.89;6681357
53.06;53.52;53.02;53.3;6622697
53.94;54.48;53.61;53.93;11028798
54.14;54.335;53.82;54.2;8309963
54.57;55.14;54.52;55.12;8998030
55.65;55.98;54.2;54.6;11168460
54.78;55.41;53.86;55.35;11905249
55.9;55.99;55.09;55.84;13953899
55.69;57.5;55.69;57.46;15124237
56.47;57.48;56.13;57.36;16858348
57.14;57.31;56.65;56.91;9372205
57.21;57.73;56.9;57.24;8403558
57.36;57.37;56.61;56.81;9463755
57.09;57.615;56.75;57.6;8382183
57.49;58.05;57.41;57.45;7493478
56.67;57.29;56.55;56.6;7321223
56.71;57.08;56.33;56.55;7193112
56.5;57.46;56.37;57.45;7474445
57.03;57.29;55.39;55.48;9783679
54.64;55.63;51.92;52.55;13439030
51.2;54.36;50.9;54.33;17628718
53.92;55.71;53.89;54.55;11541733
54.54;54.645;51.79;51.79;14073142
52.56;52.91;50.02;52.14;15736388
52.8;54.135;52.62;53.43;11712927
53.03;53.88;52.86;53.39;8659493
53.27;55.1;53.26;55.05;10536334
55.48;55.6;54.575;55.4;7769938
55.3;55.57;54.95;55.14;7448195
54.93;55.65;54.74;55.06;7709439
55.11;56.33;54.96;55.1;8363036
55.41;55.905;54.61;54.86;6111623
55.04;56.13;55.04;56.07;6687091
56.31;57.01;56.2;57.01;7795845
57.0;57.82;56.67;56.72;11757739
57.09;57.63;56.01;56.02;9599123
55.89;56.29;54.41;54.49;12093882
54.14;54.87;53.51;54.74;12154118
54.32;56.0;54.28;55.49;7598455
55.89;56.71;55.41;56.56;9762349
55.83;57.03;55.7;56.88;8180976
56.95;57.17;55.97;56.96;7553503
57.34;58.79;57.25;58.67;10535968
58.61;59.38;58.549;58.91;8123163
59.22;59.29;57.87;58.03;6031091
58.42;58.42;56.795;56.99;8384255
57.39;57.54;56.94;57.22;5648690
57.39;58.06;57.29;57.51;9144762
57.4;57.67;56.19;56.95;8117845
57.19;57.87;56.89;57.47;8426712
57.33;58.17;56.89;57.11;8676024
56.31;56.67;54.51;54.64;14900506
54.91;54.98;51.99;52.07;16707825
53.33;54.43;52.64;54.3;11913652
54.53;54.9;52.63;53.15;12389403
53.28;53.425;51.97;52.91;11262348
53.24;54.44;53.02;53.96;7349163
53.83;54.02;51.94;52.72;9311031
53.01;53.54;52.26;53.17;10335772
52.17;53.79;52.12;53.67;6692109
54.21;55.39;54.153;54.86;9968216
54.11;54.52;52.49;53.04;9578541
53.59;54.63;53.27;53.35;8111578
54.12;54.54;53.56;54.14;9286609
52.95;53.48;52.61;52.74;12121199
53.33;54.3;53.3;53.85;9315161
54.74;54.88;52.75;52.98;12364035
53.44;53.95;53.34;53.4;7282233
54.01;54.1;52.77;53.24;14505328
53.91;55.0;52.93;53.26;17524005
53.36;54.83;53.34;54.7;13873694
54.89;55.33;54.0992;54.46;10183582
54.55;54.59;53.3301;53.64;8523564
53.96;54.615;52.435;53.07;10742663
52.85;52.87;51.82;52.04;12622985
52.01;52.6;51.67;52.2;14668929
51.84;52.51;51.78;51.86;7784472
52.18;52.5;51.58;51.62;8209733
51.39;51.87;51.03;51.81;8498274
51.8;52.5475;51.495;51.7;8930984
51.37;51.44;49.885;51.08;11437990
50.72;51.77;50.525;51.4;10368650
51.64;52.63;51.53;52.39;6576064
52.56;53.76;52.39;53.38;11578140
53.62;54.25;53.16;54.14;7114842
54.23;55.2;53.86;55.04;8208570
55.1;55.54;54.88;55.2;6063094
55.35;55.64;55.11;55.22;5815967
55.04;55.42;54.5;54.85;7523359
54.54;55.165;54.5;54.97;4517653
54.89;55.15;54.34;54.87;4576778
54.56;54.93;53.87;53.92;6702437
54.43;54.94;54.24;54.36;5901704
54.46;55.4;54.45;54.88;5930382
54.48;54.606;53.625;54.35;6529702
54.13;54.28;53.175;54.0;6637304
53.66;53.83;52.715;53.01;10152793
52.18;52.32;49.51;49.96;26605112
50.7;51.195;50.09;50.97;11542623
50.7;50.78;49.9;50.14;15150422
50.93;51.47;50.87;51.21;10003862
51.57;51.73;51.4347;51.55;5523757
51.27;51.5;50.6662;50.78;9135955
50.92;52.075;50.88;51.91;7945828
52.26;52.72;51.86;52.14;8477617
52.11;52.18;51.57;51.91;6412908
52.2;52.44;51.77;51.78;6810384
51.88;52.12;50.95;51.32;8953288
51.48;52.36;51.27;51.6;7981400
51.71;51.72;51.099;51.31;8620694
50.91;51.42;50.58;51.16;11505664
50.71;50.94;50.45;50.77;7493912
50.17;50.19;49.485;49.92;12490091
50.13;50.39;49.83;49.89;6570767
49.66;50.12;48.98;49.79;11018359
49.98;50.54;48.8;48.89;18478059
48.65;48.7854;47.46;47.93;14684249
47.94;48.045;47.1099;47.79;12097849
47.94;48.4999;47.19;47.19;11635916
47.25;48.55;47.22;48.29;14183344
48.98;49.27;47.38;47.4;13592225
46.96;47.77;46.7651;47.72;8655098
47.87;47.89;46.94;47.02;5037768
47.29;47.49;46.4;46.7;10577345
46.53;47.29;46.28;47.09;7269740
47.29;48.5;47.29;48.41;9412496
48.43;48.65;47.99;48.1;9238826
47.64;48.07;47.585;47.75;6089496
48.0;48.27;47.8;48.02;7774660
48.08;48.4;47.4785;48.08;9772493
48.22;49.09;48.2;48.9;8723993
49.0;49.4452;48.49;49.18;11138345
50.75;51.5;50.05;50.56;18407322
50.5;50.97;49.78;49.85;11363567
49.65;50.585;49.59;50.27;8909994
50.27;51.0;50.25;50.74;7728944
50.98;51.525;50.84;50.98;7254883
50.98;51.11;50.405;51.04;7466198
51.22;51.36;50.92;50.99;5525022
51.09;51.3;50.725;51.05;7253602
50.88;51.31;50.43;50.9;10123712
50.96;51.015;50.22;50.56;9714906
50.94;51.18;50.04;50.18;9194876
49.81;50.03;49.25;49.81;7882660
49.97;50.16;49.73;49.91;5426539
49.89;50.12;49.57;49.99;5086939
50.15;50.84;50.1;50.13;5632265
50.13;50.38;49.96;50.12;5884075
50.1;50.25;49.41;49.44;7583434
48.88;48.89;48.14;48.39;14321552
48.34;48.4797;47.28;47.35;11447455
47.5;48.04;47.4;47.86;8695834
47.26;47.59;47.02;47.45;9496125
47.83;48.59;47.8;48.3;8264597
48.17;48.61;48.17;48.37;5854527
48.33;48.59;48.145;48.29;7898209
48.12;48.935;48.01;48.54;9632036
48.36;48.66;48.24;48.6;4951975
48.42;48.72;47.98;48.13;7699280
48.34;48.61;48.1;48.14;5620737
48.48;50.1;48.42;49.89;13317463
50.05;50.425;49.88;50.0;7419103
50.0;50.185;49.58;49.95;7856650
49.77;49.89;49.2;49.3;11399899
49.09;49.09;48.5657;48.83;7698386
48.86;48.91;48.18;48.71;8548661
48.65;49.05;48.51;48.72;5527517
48.55;48.815;47.68;47.93;7990648
48.02;48.4001;47.88;48.22;7285237
48.37;48.47;47.91;47.94;4924961
47.71;48.04;47.39;47.86;5011708
47.79;48.1;47.26;47.48;6231787
47.73;48.1;47.5;47.72;8380123
47.89;48.51;47.85;48.19;6955800
48.5;48.54;47.555;47.68;6726514
47.86;48.04;47.55;47.85;7082739
47.88;49.36;47.88;49.1;12489109
49.75;50.37;49.71;49.88;11810016
49.93;49.97;49.15;49.41;21450371
49.37;49.45;48.48;48.56;7917636
48.7;49.19;48.25;48.28;9007555
48.36;48.49;47.54;47.7;8443136
47.83;48.16;47.55;47.77;12204923
47.42;47.55;46.4;46.57;14187318
46.92;47.31;46.515;46.63;9710524
46.7;46.96;46.15;46.63;9589150
47.17;47.73;46.975;47.11;8985334
47.38;47.93;46.9733;47.27;7722601
47.38;47.53;46.5;46.75;7939075
46.51;47.215;46.3;47.02;7054493
46.7;46.81;45.94;46.16;9999920
46.34;46.41;44.515;44.62;14143842
44.18;44.7801;43.165;43.49;21746894
44.3;44.57;42.88;43.43;16049323
43.42;43.77;43.07;43.47;11986809
45.74;46.2;44.48;45.94;24174876
45.96;47.84;45.53;47.19;22122135
46.91;47.49;45.75;46.03;14873921
46.07;46.725;45.64;46.42;14931528
46.43;46.72;45.09;45.11;11166709
44.02;44.81;43.3125;44.52;15095320
44.79;44.8;43.33;43.49;15067401
43.96;44.96;43.95;44.55;13838470
43.77;44.517;43.245;43.97;12997093
44.59;45.075;43.29;43.95;12869775
44.0;44.59;43.56;44.5;14780330
45.14;46.34;45.11;45.66;16928328
45.82;46.2;45.45;45.89;8679872
46.5;46.95;45.535;45.95;10478833
46.02;46.355;45.63;45.82;12318900
45.78;46.07;45.285;45.72;10737349
46.19;46.81;45.63;46.61;9951156
46.33;46.85;46.2;46.43;9484122
46.36;46.44;45.65;45.73;10017903
45.52;45.85;43.92;44.13;14302034
43.61;45.13;43.43;44.68;12346067
45.09;46.75;43.05;43.85;13265247
43.35;44.47;43.1;44.3;14057610
43.99;44.335;43.47;44.13;9775079
44.17;44.785;44.04;44.41;9856718
43.89;44.01;42.54;43.1;16035711
43.29;44.225;43.15;43.73;7961914
43.28;43.61;43.045;43.08;4822440
43.72;44.7;43.72;44.28;8862886
44.02;44.3987;43.83;44.05;8035949
44.29;45.53;43.6722;45.31;12380774
44.9;45.085;44.32;44.51;9203174
44.38;44.61;43.905;44.39;11282504
45.07;46.14;45.0;45.41;15436860
45.05;45.17;42.32;43.12;18401387
41.65;42.73;40.98;42.61;17552418
42.43;43.06;40.95;41.32;15499771
41.09;41.42;39.555;40.71;16323168
41.52;41.88;40.18;40.62;13619401
41.11;41.76;40.8;40.81;14207559
40.88;41.12;40.325;40.6;15964625
40.07;40.94;39.53;39.64;17332199
39.29;40.66;39.015;39.6;15786277
39.95;40.82;39.64;39.89;14538285
39.9;41.08;38.84;39.3;19412265
38.89;39.66;38.56;38.91;27520303
38.41;39.72;37.49;37.68;21528542
37.61;38.0;36.74;37.01;11444426
37.28;39.395;36.78;39.3;16814171
38.48;39.77;38.33;39.66;13897851
39.94;40.0;38.94;39.37;12854257
39.67;40.08;39.065;39.65;9518406
39.02;40.72;38.76;40.4;10648013
40.22;40.22;39.25;39.68;13034509
40.5;41.58;40.28;41.3;14371614
41.51;42.16;40.98;41.71;11812629
42.3;42.41;41.08;41.45;11398177
41.91;42.21;41.25;41.74;9223047
41.38;41.96;41.24;41.66;7560784
41.28;41.87;40.96;41.74;8191878
41.31;42.79;41.12;42.48;12336263
42.21;42.99;42.03;42.88;11737024
44.0;45.1069;43.67;44.49;30530372
42.45;43.18;41.61;42.53;47037208
43.02;43.77;42.56;43.69;20614355
42.42;42.74;41.93;42.41;20202401
42.52;42.62;41.655;42.15;15583917
41.95;42.58;41.84;42.05;13421572
42.67;43.25;42.55;42.98;13422970
42.44;42.73;42.06;42.65;10396739
42.53;42.7;42.11;42.49;9916424
42.35;42.97;42.065;42.79;12348090
42.3;42.67;42.175;42.3;11163543
42.3;42.7254;41.79;41.82;13322116
41.9;42.46;41.68;42.46;8715318
42.38;42.56;42.22;42.45;9971528
42.3;42.85;42.09;42.38;9744196
42.11;42.18;41.035;41.48;12745444
41.03;41.34;40.115;40.81;13993932
41.0;41.08;40.19;40.21;17058346
40.65;41.5;40.65;41.15;12400817
41.5;42.03;41.16;41.19;9528340
40.81;41.53;40.28;40.72;10414619
41.16;42.08;41.13;41.99;13289736
41.58;42.28;41.43;42.16;9401735
42.09;42.475;42.02;42.42;10031557
42.39;42.52;41.685;41.96;9603574
42.05;42.24;41.6;41.79;10132145
42.13;42.86;42.11;42.19;10804675
41.98;42.68;41.63;42.41;10404423
42.47;42.71;42.25;42.56;6916606
42.49;42.62;41.84;41.98;12299943
42.35;42.87;42.35;42.5;12336072
42.55;43.1;41.8;42.0;12115076
41.98;42.04;41.19;41.9;10449055
41.83;42.09;41.59;41.62;7062738
41.32;41.35;40.63;41.17;12502143
40.58;41.495;40.4;41.36;11748387
41.7;42.205;41.66;41.85;7191561
41.95;42.19;41.82;42.03;7204448
42.4;42.645;42.2;42.41;9269046
42.3;42.92;42.3;42.69;8351177
42.68;43.47;42.54;43.33;18992637
43.47;44.205;43.47;44.03;10305938
44.62;44.89;43.88;43.95;12548514
43.74;43.8;42.93;43.03;15078498
42.59;43.625;42.2;43.13;14576214
42.56;42.72;41.28;41.72;25416776
41.71;41.93;40.91;41.25;14504118
41.71;42.23;41.335;41.88;9615437
41.82;42.05;41.29;41.37;11251640
41.49;41.97;41.38;41.93;8397024
42.48;42.63;41.965;42.2;11811368
42.78;43.95;42.75;43.53;25813282
43.43;43.889;43.21;43.7;13101204
44.25;44.64;44.04;44.38;11712103
44.33;45.24;44.33;44.93;9120028
45.13;45.38;44.73;44.9;8633865
44.65;44.99;44.36;44.98;10898882
44.65;44.67;43.945;44.26;7436163
44.32;44.62;44.1;44.45;6703363
44.74;45.08;44.47;44.8;7872707
45.89;47.07;45.87;46.69;21641901
46.47;46.79;45.92;46.08;11668987
46.38;47.085;46.19;47.02;13358583
47.85;48.55;47.13;48.26;19609975
47.79;48.14;47.29;47.55;19906525
47.37;47.445;46.975;47.29;7042052
47.09;47.45;46.85;47.35;8163655
47.13;47.605;47.05;47.38;9042508
47.21;47.74;47.01;47.29;5585897
47.4;47.92;47.23;47.89;7661270
47.85;48.665;47.75;48.46;9702221
48.5;48.62;47.86;48.25;8104851
48.2;48.62;47.41;47.57;9056312
47.67;48.03;47.4;47.81;7680525
48.03;48.485;47.82;48.06;5829739
46.97;47.86;46.84;47.71;6310038
47.14;47.2;46.25;46.71;10365064
46.51;47.19;46.47;46.53;7340460
45.91;46.4899;45.49;46.45;8102264
46.25;46.42;45.71;46.34;9749244
45.2;45.27;43.94;44.18;16506404
44.18;44.59;43.98;44.01;17302187
43.28;44.275;42.8568;43.9;10703080
44.06;44.72;43.915;44.28;9305005
43.52;44.32;43.5;43.88;8411718
43.49;44.16;43.33;43.87;8951644
44.24;44.53;44.14;44.39;5936391
44.11;44.3;43.43;43.49;10109593
42.75;42.82;42.15;42.71;13128975
43.03;43.2;42.69;42.96;6172306
42.85;43.07;42.16;42.17;10539520
41.74;42.24;41.565;42.19;9808742
42.46;42.625;41.525;41.83;7797240
41.11;41.28;40.6;40.69;11328629
40.71;41.0938;40.4315;40.73;10133244
41.43;42.57;41.38;42.48;11860935
42.5;42.67;41.945;42.43;6421315
42.25;42.985;42.15;42.81;5741545
42.67;43.07;42.5823;42.7;7546203
43.24;43.84;43.2;43.29;8693295
43.77;44.18;43.41;43.67;10654592
43.44;43.44;42.54;42.62;8073786
42.68;43.22;42.54;42.95;7530917
43.19;43.22;42.51;42.82;7102628
42.73;43.08;42.44;42.51;5658706
42.57;43.81;42.44;43.34;10094493
43.7;43.91;43.11;43.14;8034252
43.6;43.95;42.99;43.46;9922837
43.58;44.165;43.44;43.58;18451155
43.5;43.9;42.99;43.07;8141400
42.97;42.9999;42.24;42.66;10232874
42.78;43.29;42.75;42.99;7826369
43.3;43.65;43.08;43.49;7459832
44.2;44.565;43.74;43.81;15445649
44.59;45.055;43.52;43.95;12225118
43.7;43.925;43.4;43.83;8234802
43.95;44.145;43.82;43.99;4470788
44.49;44.815;44.07;44.21;6276024
43.59;43.96;43.285;43.49;7060245
43.08;43.87;43.02;43.78;5942327
43.76;43.975;43.24;43.31;5310978
43.49;44.325;43.38;44.18;8799426
44.55;44.9;44.38;44.87;9565715
45.01;45.01;44.29;44.43;7870655
44.8;45.06;44.27;44.43;10171236
44.26;44.3205;43.66;43.77;9131788
43.67;44.52;43.51;44.43;11187450
44.35;44.71;44.33;44.39;10083648
44.22;44.595;43.94;44.5;7091856
44.77;45.29;44.77;45.1;9859575
44.89;45.71;44.861;45.5;8092568
45.5;45.57;44.6;44.87;8733840
44.99;45.77;44.91;45.74;8320981
45.64;45.73;45.07;45.23;8666967
44.61;44.85;44.1699;44.67;7339121
44.7;44.99;44.28;44.56;8317093
44.42;44.74;42.685;42.93;12963863
42.73;42.75;41.24;42.12;16089937
40.93;41.0;39.94;40.49;15311134
40.95;41.33;40.47;41.22;10481193
40.27;40.66;39.47;40.56;14108530
41.01;41.46;40.64;41.27;9884353
40.99;41.82;40.645;41.5;11011436
40.39;41.33;40.08;40.36;8594313
40.39;41.33;40.08;40.69;10942303
39.57;39.57;38.835;39.33;17133401
39.43;39.59;38.76;39.1;10818552
39.53;40.19;39.42;39.94;9742767
40.74;40.83;40.23;40.37;7803131
40.04;40.29;39.83;39.9;11352657
40.48;40.53;39.83;39.94;9878357
40.36;40.42;39.915;40.27;8126381
40.05;40.3998;39.113;39.33;12310842
39.84;40.27;39.7;40.16;10409414
40.25;40.34;39.45;39.79;8745299
39.4;40.7;39.35;40.38;9881886
40.89;41.495;40.87;41.29;12191901
41.68;41.87;41.3;41.49;7426965
41.04;41.088;40.35;40.99;8675908
41.44;41.69;41.3;41.53;6843792
42.3;43.11;42.3;42.47;8104020
42.47;42.545;42.01;42.18;7012752
42.54;43.49;42.54;43.11;11888753
43.28;43.81;43.055;43.58;12292914
43.74;43.94;43.205;43.94;9877893
43.51;44.439;43.38;44.32;13254316
44.95;45.45;44.725;45.16;11364491
44.49;45.05;44.35;44.75;6289751
44.5;44.5;43.55;44.21;9843665
43.91;44.49;43.65;44.36;8327576
44.21;44.465;43.905;44.02;6483567
44.22;44.6;43.63;43.67;22497623
43.27;43.775;42.94;43.56;7357132
43.77;43.77;42.365;42.54;11367248
42.35;43.16;42.35;43.04;6943261
42.96;43.01;42.58;42.62;5381131
42.96;43.18;42.5;42.84;8005192
43.07;43.2;42.58;42.67;6245321
42.51;42.65;41.25;41.38;13583305
41.04;41.09;40.09;40.23;12145026
40.05;40.3;39.3;40.25;12221742
40.34;40.82;40.18;40.78;6085180
40.6;41.11;40.55;40.68;6394719
40.05;40.2;39.69;39.82;8453598
40.19;40.65;40.03;40.44;8999811
40.86;41.41;40.75;41.05;8337146
42.0;42.59;41.9;41.93;14990407
41.77;42.31;41.68;42.25;6717592
42.39;42.92;41.905;42.53;10293487
42.59;43.15;42.45;42.79;10157239
44.37;44.5;43.44;43.44;18020935
43.53;43.86;43.225;43.66;10494743
44.08;45.09;44.08;44.98;14384851
44.85;45.62;44.57;45.38;12488325
45.13;45.93;45.1;45.91;8441685
46.0;46.13;45.51;45.76;7493880
45.7;46.46;45.61;46.37;9576369
46.49;47.16;46.47;46.84;10276046
46.53;46.93;46.53;46.83;7773625
46.26;46.29;45.83;46.26;7101420
45.95;46.26;45.33;46.05;9414106
46.52;47.4;46.46;47.33;9765948
47.99;49.0;47.88;48.83;15965869
48.97;49.89;48.68;48.75;13894126
48.74;48.8;48.235;48.56;7872371
49.12;49.58;48.57;48.66;14501500
48.64;49.15;48.29;49.15;7966635
48.86;49.3899;48.71;49.09;7107518
49.07;49.21;48.77;49.01;6400983
48.52;48.58;48.1924;48.39;7093249
48.32;48.7172;48.21;48.61;5836618
48.87;49.155;48.72;48.99;6439116
48.84;49.085;48.56;49.03;6447878
49.22;49.6;49.21;49.33;6980321
48.96;49.11;48.39;49.1;9138743
49.25;49.34;48.73;48.84;8353623
48.94;49.255;48.82;49.25;6609776
49.35;49.98;49.32;49.96;8463572
49.92;49.93;49.07;49.41;10369313
49.63;49.87;49.5;49.78;8614071
49.7;49.72;49.37;49.48;4138428
49.58;49.96;49.06;49.08;8117599
48.41;48.44;47.44;48.11;12608613
48.36;49.09;48.17;48.84;8608998
49.14;49.26;48.95;49.07;6680673
49.84;50.235;49.73;49.8;9487810
49.53;49.9;49.43;49.6;6409856
49.53;49.925;49.27;49.67;10009607
49.66;49.79;49.415;49.45;6296326
49.65;50.87;49.47;50.69;11553705
50.74;51.15;50.14;50.24;10191244
50.77;51.12;50.6;50.72;11007602
50.82;51.22;50.77;50.9;10447045
51.0;51.12;50.64;50.66;9513060
50.65;51.0;50.545;50.86;9222000
51.44;51.44;50.66;50.69;18743335
50.91;51.1;50.71;50.72;6547641
50.83;50.93;50.57;50.69;2087767
50.97;51.29;50.86;51.11;5517449
51.33;51.33;50.925;51.09;4117109
51.36;51.38;50.92;50.96;4532760
50.96;51.13;50.74;51.12;5132637
51.2;52.06;51.17;52.04;7440294
51.22;51.45;50.83;51.2;6706712
50.67;51.04;50.46;51.02;7478540
51.04;51.19;50.71;50.92;4572114
50.96;51.79;50.9;51.57;6185249
52.17;52.25;51.82;52.06;7310275
52.15;52.47;51.915;52.21;7690485
52.21;52.78;52.07;52.78;8335362
53.06;53.245;52.675;52.86;9605014
52.48;52.94;52.11;52.94;11342486
56.05;57.36;55.65;56.44;34590664
56.26;57.57;56.18;57.51;15403886
55.88;56.48;55.18;55.92;20833888
56.18;56.51;55.85;55.86;10276830
55.22;55.65;54.8;55.53;10064905
55.53;55.61;54.1;54.55;9752123
53.0;53.692;52.86;53.11;10649107
53.8;54.44;53.375;54.02;9232924
54.48;54.55;53.68;53.68;9027852
52.61;53.86;52.4;53.82;8685860
53.2;53.28;51.885;52.26;11286887
52.64;53.59;52.58;52.6;8375623
53.75;54.6;53.73;54.02;9375133
54.86;55.15;54.3829;54.99;8237518
55.43;55.49;54.61;55.01;6976882
54.61;55.11;54.42;55.03;7587971
54.68;55.36;54.615;55.35;5115052
55.74;56.245;55.69;55.78;7120808
56.22;56.655;56.11;56.18;7130011
55.8;55.99;55.5;55.93;5718394
55.9;56.12;55.54;55.84;4579308
55.8;55.96;54.935;55.52;6898811
55.86;56.43;55.49;56.31;6075295
54.0;55.505;53.59;53.75;58533497
53.5;53.59;52.09;52.42;29541326
50.31;50.49;49.21;49.68;28670358
49.98;50.15;47.56;48.03;25568358
48.22;48.55;46.89;47.24;22286787
45.74;47.205;45.16;45.41;26815173
43.87;45.5462;43.69;45.03;36983543
45.11;46.48;44.4;46.48;23234145
46.37;46.92;43.855;44.4;30206617
45.16;45.3229;44.21;45.24;21938107
43.51;43.94;42.14;42.59;23950190
40.51;42.24;40.34;41.84;30898354
36.85;39.02;36.85;37.5;28177463
39.81;39.99;37.05;39.5;27110969
38.23;38.86;36.443;36.87;27383553
33.91;34.91;31.21;31.31;27964640
34.27;37.52;33.068;37.5;33305139
31.07;35.27;30.36;31.65;26789927
32.37;35.12;30.11;33.79;27047360
31.34;32.84;27.2;30.75;27603006
30.35;32.9;28.74;30.92;23929644
31.25;31.45;29.19;29.67;27472498
29.15;29.7899;27.76;27.81;26400955
30.09;33.375;29.4;33.22;25905496
33.9;35.48;32.25;33.99;27198494
33.8;36.85;33.33;35.71;26425797
33.64;34.73;33.12;34.01;33375420
33.53;35.34;32.97;34.84;18046780
34.53;35.29;33.715;34.0;17122553
31.68;32.41;31.16;31.62;23755111
31.34;34.0;31.25;33.9;21656043
33.56;34.3;32.86;33.85;16926486
35.93;37.5;35.75;37.01;18788712
39.66;39.66;36.86;36.94;19536694
37.71;39.785;37.45;39.37;15376701
40.26;41.85;40.18;41.08;21904393
40.88;41.0;39.25;39.58;13369867
40.51;40.77;38.37;39.86;14471851
38.21;39.41;37.59;38.4;15590055
37.86;38.82;37.07;38.36;27913002
39.55;40.1;38.19;39.09;25074468
38.19;39.54;37.82;38.36;16573774
37.3;38.14;36.56;36.95;14134853
37.87;38.18;37.44;37.81;10455168
38.1;38.39;37.28;37.47;8694790
37.97;38.19;37.26;37.97;8571340
38.64;39.55;38.33;39.31;11619370
40.57;41.38;39.84;40.13;12778364
41.1;41.355;40.55;40.79;15880383
39.9;40.11;39.0;39.43;13431739
38.35;38.72;37.91;38.4;12806181
38.0;38.22;37.17;38.09;13985071
38.98;39.305;37.9;37.98;8951215
38.47;38.63;37.05;37.3;7817785
37.76;39.14;37.76;38.81;9352100
39.51;40.165;39.2;40.08;12097712
39.38;40.06;39.3;39.83;10106435
39.97;40.07;38.345;38.42;13605558
38.15;38.28;36.605;36.99;11565874
36.26;37.965;35.53;37.81;14986649
37.26;37.81;37.02;37.29;9176032
38.92;40.65;38.68;40.28;14727110
40.1;40.5476;39.29;39.33;8895495
40.07;41.25;40.0386;41.06;12031995
40.77;40.93;39.84;40.3;9654223
40.23;40.54;39.8;40.13;6468870
41.865;43.785;41.55;43.69;19709852
45.78;46.92;45.31;46.86;25892352
47.25;47.32;44.275;44.4;17617296
44.01;44.79;43.52;44.2;13102217
44.52;45.07;43.95;44.7;8651542
45.18;46.26;44.88;45.58;11179214
46.98;47.49;46.44;46.91;11253469
46.71;48.75;46.69;48.69;15279620
51.3;51.85;49.235;49.53;17976074
50.52;50.68;49.38;50.15;12150265
48.72;50.685;48.57;50.4;15090449
50.03;50.5;48.605;48.69;14770858
46.13;47.2;44.44;44.57;17961917
46.76;46.945;45.12;46.28;14093076
44.66;47.85;44.6;47.4;14761443
49.44;49.6;46.91;48.56;13554814
48.7;48.78;47.655;47.76;8674443
47.12;48.375;46.97;47.58;9825246
48.46;48.68;46.71;46.93;20962699
46.8;47.61;46.55;47.38;11657353
48.27;48.48;47.61;47.89;9672599
47.59;47.65;46.415;46.95;12806219
46.71;48.86;46.54;48.79;15014346
48.3;48.37;46.605;47.05;20082528
47.57;47.8;46.645;47.24;9380766
47.06;48.53;47.06;48.3;11894391
48.41;49.08;47.245;47.61;11363839
48.86;49.03;47.68;47.79;7488814
48.87;49.37;48.7;48.82;10649573
48.52;48.55;47.39;47.49;8750686
47.63;48.99;47.275;48.91;12322190
48.795;49.05;47.02;47.51;9119909
47.59;49.88;47.5205;49.8;13386042
51.03;51.03;49.88;50.22;14903987
50.27;50.58;48.91;50.5;16075621
52.49;52.49;50.4596;51.35;17424159
51.58;53.5081;51.34;52.64;25026766
52.78;53.01;51.98;52.41;16274884
51.76;52.07;51.35;51.86;10423556
52.1;52.45;51.52;52.38;11956468
52.0;52.35;50.99;51.0;13603995
50.99;51.245;50.31;50.56;13526984
50.56;50.8;50.07;50.18;6860824
49.91;51.57;49.73;51.32;12087057
50.83;51.22;50.21;50.26;7287935
50.27;50.66;49.88;50.59;8074269
49.36;49.36;48.55;48.95;9410093
49.02;49.03;48.27;48.88;9664610
49.22;49.905;48.72;49.46;9913058
49.5;49.77;49.08;49.26;6351292
49.59;49.96;49.44;49.77;6701327
49.83;49.98;49.24;49.45;5701120
49.21;50.47;49.08;50.35;6225854
50.5;50.83;50.26;50.58;6518312
51.64;52.87;51.565;51.78;11792644
52.63;53.42;51.91;52.38;8950091
51.93;52.46;51.71;52.18;5728684
51.68;52.545;51.65;52.3;5782322
52.2;52.3;51.09;51.28;7332966
51.17;51.37;50.65;50.92;6449980
51.19;52.03;51.14;51.37;5957612
50.73;51.07;50.495;50.8;5186346
50.59;51.42;50.5;51.1;6408525
51.31;52.47;51.16;52.37;7728471
52.81;52.89;51.85;52.05;8425547
51.99;52.105;51.61;51.71;5920758
51.76;52.865;51.68;52.61;8910127
53.0;53.0;52.45;52.89;8743821
52.89;52.89;52.25;52.26;8026556
51.92;52.815;51.69;52.58;5568878
52.61;53.47;52.465;53.25;7547103
53.6;54.38;52.2;52.75;11029568
53.44;53.76;51.755;52.71;9413215
52.29;52.29;50.09;50.17;10946564
50.59;51.63;50.43;51.06;8808475
51.33;51.59;50.17;50.29;8609094
50.36;50.945;50.055;50.35;8969704
50.96;51.565;50.3;51.15;8812184
51.16;51.335;50.27;50.39;7660121
50.48;51.91;50.31;51.15;8699746
50.39;50.925;49.98;50.25;7533674
50.37;50.94;50.05;50.08;10743889
48.86;49.0899;47.51;48.36;12909933
48.24;48.59;46.925;47.63;11164792
47.86;48.235;46.39;46.42;8248128
46.54;47.42;45.86;46.61;9832684
46.28;47.33;45.915;47.04;9815974
47.89;49.14;47.805;48.38;9466192
48.07;48.26;47.19;47.24;11360594
47.67;48.99;47.54;48.35;15047271
48.75;49.07;46.9;47.26;25275383
46.49;48.34;46.42;47.97;12681791
48.43;48.89;47.78;48.6;19140147
49.2;49.41;47.47;47.74;22980198
48.38;49.17;48.24;48.71;12019111
47.98;49.49;47.26;49.0;23836623
49.44;49.73;48.73;48.83;11381797
49.27;51.01;49.03;50.74;17615010
51.12;51.24;49.985;50.44;17448025
50.91;51.39;50.38;50.65;20377839
49.93;51.87;49.92;51.33;21059655
51.53;52.27;51.43;51.85;16923295
52.19;52.19;50.785;50.95;12677005
51.56;52.265;51.37;51.47;11177607
51.49;51.81;50.26;50.38;18583166
50.42;51.98;50.12;51.77;13266863
52.25;52.61;51.54;51.87;11538513
51.15;51.28;49.8;50.32;15561375
50.25;50.28;48.58;48.59;11593349
47.56;48.11;47.19;47.57;13622836
47.05;48.43;46.55;48.12;10887776
47.96;48.26;47.01;48.15;14909309
48.875;49.84;48.44;49.38;16337826
50.41;51.455;50.41;51.18;13142230
50.53;52.32;50.51;51.43;17377963
52.0;52.775;51.58;52.2;9444282
52.58;52.62;51.5118;51.7;6453859
55.405;56.91;55.055;56.02;24243330
56.59;56.82;54.895;55.75;15502868
55.94;56.67;55.39;56.34;9731560
55.5;55.925;54.99;55.55;9890063
55.96;57.045;55.905;56.61;9920121
57.76;58.14;57.03;58.11;12201431
57.51;58.885;57.2;58.81;9599328
59.0;60.13;58.77;58.81;11536660
58.56;58.69;57.86;58.63;7220169
58.36;58.74;57.505;57.81;7740426
58.67;60.765;58.6125;60.27;12651787
61.14;63.66;60.635;63.6;22361328
63.0;63.77;62.25;63.48;11509714
63.48;63.96;63.065;63.84;5581487
63.575;63.83;61.59;61.83;15610709
63.12;63.8;62.77;63.28;15857747
63.07;64.26;62.89;64.02;10790797
64.06;64.62;63.82;64.06;11757871
64.51;65.19;64.28;65.0;10169667
64.54;65.18;63.88;64.26;10402058
63.47;64.38;63.41;63.91;6386224
64.7;65.425;64.1;64.37;10145535
63.6;64.55;63.33;64.44;8888349
63.4;63.72;62.7;63.32;9034197
64.25;64.3;61.86;61.88;10236584
62.49;64.03;62.16;63.95;9746935
63.76;64.37;63.59;64.23;8806355
64.41;64.75;64.07;64.67;7197498
64.83;64.93;63.35;64.18;15499829
66.01;68.3;65.8;67.83;14787830
68.25;68.25;66.59;66.64;9809755
67.0;68.97;66.97;68.21;8772476
68.36;68.58;67.76;68.09;3126691
68.56;68.84;67.97;68.05;7417070
68.31;68.49;67.312;67.71;4701262
67.83;68.19;67.57;67.84;5283216
67.8;68.74;67.41;68.53;5297387
